\select@language {czech}
\contentsline {chapter}{\numberline {1}Zad\IeC {\'a}n\IeC {\'\i }}{2}{chapter.1}
\contentsline {chapter}{\numberline {2}Popis implementace}{3}{chapter.2}
\contentsline {section}{\numberline {2.1}Aplikace}{3}{section.2.1}
\contentsline {subsection}{\numberline {2.1.1}App.js}{4}{subsection.2.1.1}
\contentsline {subsection}{\numberline {2.1.2}connection.js}{4}{subsection.2.1.2}
\contentsline {subsection}{\numberline {2.1.3}CrossWords.js}{4}{subsection.2.1.3}
\contentsline {subsection}{\numberline {2.1.4}CrossWordsTemplate.js}{4}{subsection.2.1.4}
\contentsline {subsection}{\numberline {2.1.5}cw.js}{4}{subsection.2.1.5}
\contentsline {subsection}{\numberline {2.1.6}firebase.js}{4}{subsection.2.1.6}
\contentsline {subsection}{\numberline {2.1.7}hints.js}{4}{subsection.2.1.7}
\contentsline {subsection}{\numberline {2.1.8}Homepage.js}{4}{subsection.2.1.8}
\contentsline {subsection}{\numberline {2.1.9}index.js}{4}{subsection.2.1.9}
\contentsline {subsection}{\numberline {2.1.10}LanguageMenu.js}{4}{subsection.2.1.10}
\contentsline {subsection}{\numberline {2.1.11}LanguageMenuItem.js}{4}{subsection.2.1.11}
\contentsline {subsection}{\numberline {2.1.12}PlayerGreetings.js}{4}{subsection.2.1.12}
\contentsline {subsection}{\numberline {2.1.13}PlayerName.js}{4}{subsection.2.1.13}
\contentsline {subsection}{\numberline {2.1.14}Score.js}{4}{subsection.2.1.14}
\contentsline {section}{\numberline {2.2}Datab\IeC {\'a}ze Firebase}{4}{section.2.2}
\contentsline {chapter}{\numberline {3}U\IeC {\v z}ivatelsk\IeC {\'a} p\IeC {\v r}\IeC {\'\i }ru\IeC {\v c}ka}{7}{chapter.3}
\contentsline {chapter}{\numberline {4}Z\IeC {\'a}v\IeC {\v e}r}{9}{chapter.4}
