\relax 
\providecommand\hyper@newdestlabel[2]{}
\catcode `"\active 
\catcode `-\active 
\providecommand\HyperFirstAtBeginDocument{\AtBeginDocument}
\HyperFirstAtBeginDocument{\ifx\hyper@anchor\@undefined
\global\let\oldcontentsline\contentsline
\gdef\contentsline#1#2#3#4{\oldcontentsline{#1}{#2}{#3}}
\global\let\oldnewlabel\newlabel
\gdef\newlabel#1#2{\newlabelxx{#1}#2}
\gdef\newlabelxx#1#2#3#4#5#6{\oldnewlabel{#1}{{#2}{#3}}}
\AtEndDocument{\ifx\hyper@anchor\@undefined
\let\contentsline\oldcontentsline
\let\newlabel\oldnewlabel
\fi}
\fi}
\global\let\hyper@last\relax 
\gdef\HyperFirstAtBeginDocument#1{#1}
\providecommand\HyField@AuxAddToFields[1]{}
\providecommand\HyField@AuxAddToCoFields[2]{}
\select@language{czech}
\@writefile{toc}{\select@language{czech}}
\@writefile{lof}{\select@language{czech}}
\@writefile{lot}{\select@language{czech}}
\@writefile{toc}{\contentsline {chapter}{\numberline {1}Zad\IeC {\'a}n\IeC {\'\i }}{2}{chapter.1}}
\@writefile{lof}{\addvspace {10\p@ }}
\@writefile{lot}{\addvspace {10\p@ }}
\@writefile{toc}{\contentsline {chapter}{\numberline {2}Popis implementace}{3}{chapter.2}}
\@writefile{lof}{\addvspace {10\p@ }}
\@writefile{lot}{\addvspace {10\p@ }}
\@writefile{toc}{\contentsline {section}{\numberline {2.1}Aplikace}{3}{section.2.1}}
\@writefile{toc}{\contentsline {subsection}{\numberline {2.1.1}App.js}{4}{subsection.2.1.1}}
\@writefile{toc}{\contentsline {subsection}{\numberline {2.1.2}connection.js}{4}{subsection.2.1.2}}
\@writefile{toc}{\contentsline {subsection}{\numberline {2.1.3}CrossWords.js}{4}{subsection.2.1.3}}
\@writefile{toc}{\contentsline {subsection}{\numberline {2.1.4}CrossWordsTemplate.js}{4}{subsection.2.1.4}}
\@writefile{toc}{\contentsline {subsection}{\numberline {2.1.5}cw.js}{4}{subsection.2.1.5}}
\@writefile{toc}{\contentsline {subsection}{\numberline {2.1.6}firebase.js}{4}{subsection.2.1.6}}
\@writefile{toc}{\contentsline {subsection}{\numberline {2.1.7}hints.js}{4}{subsection.2.1.7}}
\@writefile{toc}{\contentsline {subsection}{\numberline {2.1.8}Homepage.js}{4}{subsection.2.1.8}}
\@writefile{toc}{\contentsline {subsection}{\numberline {2.1.9}index.js}{4}{subsection.2.1.9}}
\@writefile{toc}{\contentsline {subsection}{\numberline {2.1.10}LanguageMenu.js}{4}{subsection.2.1.10}}
\@writefile{toc}{\contentsline {subsection}{\numberline {2.1.11}LanguageMenuItem.js}{4}{subsection.2.1.11}}
\@writefile{toc}{\contentsline {subsection}{\numberline {2.1.12}PlayerGreetings.js}{4}{subsection.2.1.12}}
\@writefile{toc}{\contentsline {subsection}{\numberline {2.1.13}PlayerName.js}{4}{subsection.2.1.13}}
\@writefile{toc}{\contentsline {subsection}{\numberline {2.1.14}Score.js}{4}{subsection.2.1.14}}
\@writefile{toc}{\contentsline {section}{\numberline {2.2}Datab\IeC {\'a}ze Firebase}{4}{section.2.2}}
\@writefile{lof}{\contentsline {figure}{\numberline {2.1}{\ignorespaces Struktura DB}}{6}{figure.2.1}}
\newlabel{fig:db_struct}{{2.1}{6}{Struktura DB}{figure.2.1}{}}
\@writefile{toc}{\contentsline {chapter}{\numberline {3}U\IeC {\v z}ivatelsk\IeC {\'a} p\IeC {\v r}\IeC {\'\i }ru\IeC {\v c}ka}{7}{chapter.3}}
\@writefile{lof}{\addvspace {10\p@ }}
\@writefile{lot}{\addvspace {10\p@ }}
\@writefile{lof}{\contentsline {figure}{\numberline {3.1}{\ignorespaces V\IeC {\'y}b\IeC {\v e}r jazyk\IeC {\r u} pro tvorbu k\IeC {\v r}\IeC {\'\i }\IeC {\v z}ovek}}{7}{figure.3.1}}
\newlabel{fig:db_struct}{{3.1}{7}{Výběr jazyků pro tvorbu křížovek}{figure.3.1}{}}
\@writefile{lof}{\contentsline {figure}{\numberline {3.2}{\ignorespaces Takto vid\IeC {\'\i } hru jeden z hr\IeC {\'a}\IeC {\v c}\IeC {\r u}}}{8}{figure.3.2}}
\newlabel{fig:db_struct}{{3.2}{8}{Takto vidí hru jeden z hráčů}{figure.3.2}{}}
\@writefile{toc}{\contentsline {chapter}{\numberline {4}Z\IeC {\'a}v\IeC {\v e}r}{9}{chapter.4}}
\@writefile{lof}{\addvspace {10\p@ }}
\@writefile{lot}{\addvspace {10\p@ }}
