00: - H L A S - - - R - 
01: - - A - R - C - O - 
02: - - M - - - H - S - 
03: A N A L Y Z O V A T 
04: - O - - - - V - - - 
05: - C - - - - Á - - - 
06: - - - S L A N I N A 
07: - U U O - - Í - - U 
08: - - - U - - - - - T 
09: A B C D - J Í D L O 

Patterns: 
-,1,0,HLAS,voz
-,0,3,ANALYZOVAT,analizar
-,3,6,SLANINA,tocino
-,1,7,UUO,ununoctium
-,0,9,ABCD,[PUZZLE]
-,5,9,JÍDLO,comida
|,1,3,NOC,noche
|,2,0,LAMA,llama
|,3,6,SOUD,Corte
|,4,0,SR,strontium
|,6,1,CHOVÁNÍ,comportamiento
|,8,0,ROSA,rocio
|,9,6,AUTO,auto
